<svg width="28" height="28" viewBox="0 0 28 28" fill="none" xmlns="http://www.w3.org/2000/svg">
<g clip-path="url(#clip0)">
<path fill-rule="evenodd" clip-rule="evenodd" d="M5.32672 23.993C6.38943 22.9303 7.83076 22.3333 9.33366 22.3333H18.667C20.1699 22.3333 21.6112 22.9303 22.6739 23.993C23.7366 25.0557 24.3337 26.4971 24.3337 28V30.3333C24.3337 30.8856 23.8859 31.3333 23.3337 31.3333C22.7814 31.3333 22.3337 30.8856 22.3337 30.3333V28C22.3337 27.0275 21.9473 26.0949 21.2597 25.4073C20.5721 24.7196 19.6395 24.3333 18.667 24.3333H9.33366C8.3612 24.3333 7.42857 24.7196 6.74093 25.4073C6.0533 26.0949 5.66699 27.0275 5.66699 28V30.3333C5.66699 30.8856 5.21928 31.3333 4.66699 31.3333C4.11471 31.3333 3.66699 30.8856 3.66699 30.3333V28C3.66699 26.4971 4.26401 25.0557 5.32672 23.993Z" fill="#004E47"/>
<path fill-rule="evenodd" clip-rule="evenodd" d="M13.9997 10.3333C11.9746 10.3333 10.333 11.9749 10.333 14C10.333 16.025 11.9746 17.6666 13.9997 17.6666C16.0247 17.6666 17.6663 16.025 17.6663 14C17.6663 11.9749 16.0247 10.3333 13.9997 10.3333ZM8.33301 14C8.33301 10.8704 10.8701 8.33331 13.9997 8.33331C17.1293 8.33331 19.6663 10.8704 19.6663 14C19.6663 17.1296 17.1293 19.6666 13.9997 19.6666C10.8701 19.6666 8.33301 17.1296 8.33301 14Z" fill="#004E47"/>
</g>
<defs>
<clipPath id="clip0">
<rect width="28" height="28" fill="white"/>
</clipPath>
</defs>
</svg>
